(kicad_sch
	(version 20231120)
	(generator "eeschema")
	(generator_version "8.0")
	(uuid "a40d2263-de41-41c2-b443-e2e54239a91c")
	(paper "A4")
	(lib_symbols
		(symbol "Mechanical:MountingHole_Pad"
			(pin_numbers hide)
			(pin_names
				(offset 1.016) hide)
			(exclude_from_sim no)
			(in_bom yes)
			(on_board yes)
			(property "Reference" "H"
				(at 0 6.35 0)
				(effects
					(font
						(size 1.27 1.27)
					)
				)
			)
			(property "Value" "MountingHole_Pad"
				(at 0 4.445 0)
				(effects
					(font
						(size 1.27 1.27)
					)
				)
			)
			(property "Footprint" ""
				(at 0 0 0)
				(effects
					(font
						(size 1.27 1.27)
					)
					(hide yes)
				)
			)
			(property "Datasheet" "~"
				(at 0 0 0)
				(effects
					(font
						(size 1.27 1.27)
					)
					(hide yes)
				)
			)
			(property "Description" "Mounting Hole with connection"
				(at 0 0 0)
				(effects
					(font
						(size 1.27 1.27)
					)
					(hide yes)
				)
			)
			(property "ki_keywords" "mounting hole"
				(at 0 0 0)
				(effects
					(font
						(size 1.27 1.27)
					)
					(hide yes)
				)
			)
			(property "ki_fp_filters" "MountingHole*Pad*"
				(at 0 0 0)
				(effects
					(font
						(size 1.27 1.27)
					)
					(hide yes)
				)
			)
			(symbol "MountingHole_Pad_0_1"
				(circle
					(center 0 1.27)
					(radius 1.27)
					(stroke
						(width 1.27)
						(type default)
					)
					(fill
						(type none)
					)
				)
			)
			(symbol "MountingHole_Pad_1_1"
				(pin input line
					(at 0 -2.54 90)
					(length 2.54)
					(name "1"
						(effects
							(font
								(size 1.27 1.27)
							)
						)
					)
					(number "1"
						(effects
							(font
								(size 1.27 1.27)
							)
						)
					)
				)
			)
		)
		(symbol "lsf-kicad:MABA-011094"
			(pin_names hide)
			(exclude_from_sim no)
			(in_bom yes)
			(on_board yes)
			(property "Reference" "TR"
				(at -6.35 0 90)
				(effects
					(font
						(size 1.27 1.27)
					)
				)
			)
			(property "Value" "MABA-011094"
				(at 0 -6.35 0)
				(effects
					(font
						(size 1.27 1.27)
					)
				)
			)
			(property "Footprint" "lsf-kicad-lib:MABA-011094"
				(at 0 -8.89 0)
				(effects
					(font
						(size 1.27 1.27)
					)
					(hide yes)
				)
			)
			(property "Datasheet" "https://gr.mouser.com/datasheet/2/249/MABA-011094-1489203.pdf"
				(at 0 0 90)
				(effects
					(font
						(size 1.27 1.27)
					)
					(hide yes)
				)
			)
			(property "Description" "5 -1225MHz 1:1 RF Transformer, Balanced to Balanced"
				(at 0 0 0)
				(effects
					(font
						(size 1.27 1.27)
					)
					(hide yes)
				)
			)
			(property "ki_keywords" "Macom RF Transformer"
				(at 0 0 0)
				(effects
					(font
						(size 1.27 1.27)
					)
					(hide yes)
				)
			)
			(property "ki_fp_filters" "*MABA?011094*"
				(at 0 0 0)
				(effects
					(font
						(size 1.27 1.27)
					)
					(hide yes)
				)
			)
			(symbol "MABA-011094_1_1"
				(pin passive line
					(at 7.62 -5.08 180)
					(length 2.54)
					(name "~"
						(effects
							(font
								(size 1.27 1.27)
							)
						)
					)
					(number "1"
						(effects
							(font
								(size 1.27 1.27)
							)
						)
					)
				)
				(pin passive line
					(at 7.62 5.08 180)
					(length 2.54)
					(name "~"
						(effects
							(font
								(size 1.27 1.27)
							)
						)
					)
					(number "3"
						(effects
							(font
								(size 1.27 1.27)
							)
						)
					)
				)
				(pin passive line
					(at -7.62 -5.08 0)
					(length 2.54)
					(name "~"
						(effects
							(font
								(size 1.27 1.27)
							)
						)
					)
					(number "4"
						(effects
							(font
								(size 1.27 1.27)
							)
						)
					)
				)
				(pin passive line
					(at -7.62 5.08 0)
					(length 2.54)
					(name "~"
						(effects
							(font
								(size 1.27 1.27)
							)
						)
					)
					(number "5"
						(effects
							(font
								(size 1.27 1.27)
							)
						)
					)
				)
			)
		)
	)
	(junction
		(at 127 104.775)
		(diameter 0)
		(color 0 0 0 0)
		(uuid "13a934c7-55be-451a-ac53-fb74d8c15b36")
	)
	(junction
		(at 127 94.615)
		(diameter 0)
		(color 0 0 0 0)
		(uuid "85996c21-59e7-4599-9273-b9a99bc4e8f4")
	)
	(wire
		(pts
			(xy 121.92 94.615) (xy 127 94.615)
		)
		(stroke
			(width 0)
			(type default)
		)
		(uuid "2dc752fd-3a1e-40af-bbf9-e8df90e2b1c2")
	)
	(wire
		(pts
			(xy 127 104.775) (xy 121.92 104.775)
		)
		(stroke
			(width 0)
			(type default)
		)
		(uuid "3c660ff8-d8a5-4493-8493-3c138c1184b2")
	)
	(wire
		(pts
			(xy 127 104.775) (xy 146.685 104.775)
		)
		(stroke
			(width 0)
			(type default)
		)
		(uuid "69808f74-6a96-42f7-9bcb-2e6d06b35036")
	)
	(wire
		(pts
			(xy 161.925 104.775) (xy 174.625 104.775)
		)
		(stroke
			(width 0)
			(type default)
		)
		(uuid "e246bbb6-a6b8-4db9-8447-2ce286e32d9f")
	)
	(wire
		(pts
			(xy 161.925 94.615) (xy 174.625 94.615)
		)
		(stroke
			(width 0)
			(type default)
		)
		(uuid "edfe60c6-764c-4032-bff8-147cfb458189")
	)
	(wire
		(pts
			(xy 127 94.615) (xy 146.685 94.615)
		)
		(stroke
			(width 0)
			(type default)
		)
		(uuid "f094c55a-52c3-4d80-8b93-ea9bd4edf65d")
	)
	(label "RF_OUT"
		(at 136.525 94.615 180)
		(fields_autoplaced yes)
		(effects
			(font
				(size 1.27 1.27)
			)
			(justify right bottom)
		)
		(uuid "5f3dab9b-5a92-488a-9883-285f2b54d96d")
	)
	(symbol
		(lib_id "Mechanical:MountingHole_Pad")
		(at 177.165 104.775 270)
		(unit 1)
		(exclude_from_sim no)
		(in_bom yes)
		(on_board yes)
		(dnp no)
		(uuid "35a6e831-35df-47d3-9c5f-7d4c74e0672d")
		(property "Reference" "H6"
			(at 184.4548 104.775 0)
			(effects
				(font
					(size 1.27 1.27)
				)
			)
		)
		(property "Value" "SMA"
			(at 182.1434 104.775 0)
			(effects
				(font
					(size 1.27 1.27)
				)
			)
		)
		(property "Footprint" "LSF_KICAD_LIB:MountingHole_1.0mm_Pad_TopBottom"
			(at 194.945 104.14 0)
			(effects
				(font
					(size 1.27 1.27)
				)
				(hide yes)
			)
		)
		(property "Datasheet" "~"
			(at 177.165 104.775 0)
			(effects
				(font
					(size 1.27 1.27)
				)
				(hide yes)
			)
		)
		(property "Description" ""
			(at 177.165 104.775 0)
			(effects
				(font
					(size 1.27 1.27)
				)
				(hide yes)
			)
		)
		(pin "1"
			(uuid "47c02c84-cb9e-46c6-8377-ee1447667879")
		)
		(instances
			(project "antenna-pcb"
				(path "/a40d2263-de41-41c2-b443-e2e54239a91c"
					(reference "H6")
					(unit 1)
				)
			)
		)
	)
	(symbol
		(lib_id "lsf-kicad:MABA-011094")
		(at 154.305 99.695 180)
		(unit 1)
		(exclude_from_sim no)
		(in_bom yes)
		(on_board yes)
		(dnp no)
		(uuid "41ee91d1-f337-4cc5-a961-0ae209ae80c3")
		(property "Reference" "TR1"
			(at 154.305 88.9 0)
			(effects
				(font
					(size 1.27 1.27)
				)
			)
		)
		(property "Value" "MABA-011094"
			(at 154.305 91.2114 0)
			(effects
				(font
					(size 1.27 1.27)
				)
			)
		)
		(property "Footprint" "LSF_KICAD_LIB:MABA-011094"
			(at 154.305 90.805 0)
			(effects
				(font
					(size 1.27 1.27)
				)
				(hide yes)
			)
		)
		(property "Datasheet" "https://cdn.macom.com/datasheets/MABA-011094.pdf"
			(at 154.305 99.695 90)
			(effects
				(font
					(size 1.27 1.27)
				)
				(hide yes)
			)
		)
		(property "Description" ""
			(at 154.305 99.695 0)
			(effects
				(font
					(size 1.27 1.27)
				)
				(hide yes)
			)
		)
		(property "Part Number" "MABA-011094"
			(at 154.305 99.695 0)
			(effects
				(font
					(size 1.27 1.27)
				)
				(hide yes)
			)
		)
		(pin "1"
			(uuid "3147d62a-2fe3-4b75-90ec-2251d2c56463")
		)
		(pin "3"
			(uuid "3f2cbd14-4d57-4a60-9e7b-70af7a44903e")
		)
		(pin "4"
			(uuid "ec177446-8d6f-4d7a-a582-a92cd1c84591")
		)
		(pin "5"
			(uuid "0214df1f-c08c-4893-a260-b233d4e812f8")
		)
		(instances
			(project "antenna-pcb"
				(path "/a40d2263-de41-41c2-b443-e2e54239a91c"
					(reference "TR1")
					(unit 1)
				)
			)
		)
	)
	(symbol
		(lib_id "Mechanical:MountingHole_Pad")
		(at 121.92 92.075 0)
		(unit 1)
		(exclude_from_sim no)
		(in_bom yes)
		(on_board yes)
		(dnp no)
		(uuid "758f7e3f-0daf-425f-8865-d9748de5241e")
		(property "Reference" "H1"
			(at 121.92 84.7852 0)
			(effects
				(font
					(size 1.27 1.27)
				)
			)
		)
		(property "Value" "ANT"
			(at 121.92 87.0966 0)
			(effects
				(font
					(size 1.27 1.27)
				)
			)
		)
		(property "Footprint" "MountingHole:MountingHole_2.2mm_M2_ISO14580_Pad"
			(at 121.92 92.075 0)
			(effects
				(font
					(size 1.27 1.27)
				)
				(hide yes)
			)
		)
		(property "Datasheet" "~"
			(at 121.92 92.075 0)
			(effects
				(font
					(size 1.27 1.27)
				)
				(hide yes)
			)
		)
		(property "Description" ""
			(at 121.92 92.075 0)
			(effects
				(font
					(size 1.27 1.27)
				)
				(hide yes)
			)
		)
		(pin "1"
			(uuid "63574ae9-50c5-4362-91cf-745facd2de5f")
		)
		(instances
			(project "antenna-pcb"
				(path "/a40d2263-de41-41c2-b443-e2e54239a91c"
					(reference "H1")
					(unit 1)
				)
			)
		)
	)
	(symbol
		(lib_id "Mechanical:MountingHole_Pad")
		(at 121.92 107.315 180)
		(unit 1)
		(exclude_from_sim no)
		(in_bom yes)
		(on_board yes)
		(dnp no)
		(uuid "7d0e1f4c-1447-4ef2-a44f-dc21a8052d31")
		(property "Reference" "H2"
			(at 123.0884 111.125 90)
			(effects
				(font
					(size 1.27 1.27)
				)
				(justify left)
			)
		)
		(property "Value" "ANT"
			(at 120.777 111.125 90)
			(effects
				(font
					(size 1.27 1.27)
				)
				(justify left)
			)
		)
		(property "Footprint" "MountingHole:MountingHole_2.2mm_M2_ISO14580_Pad"
			(at 121.92 107.315 0)
			(effects
				(font
					(size 1.27 1.27)
				)
				(hide yes)
			)
		)
		(property "Datasheet" "~"
			(at 121.92 107.315 0)
			(effects
				(font
					(size 1.27 1.27)
				)
				(hide yes)
			)
		)
		(property "Description" ""
			(at 121.92 107.315 0)
			(effects
				(font
					(size 1.27 1.27)
				)
				(hide yes)
			)
		)
		(pin "1"
			(uuid "e16e816c-913a-4b64-a1ce-38fe8a1068e3")
		)
		(instances
			(project "antenna-pcb"
				(path "/a40d2263-de41-41c2-b443-e2e54239a91c"
					(reference "H2")
					(unit 1)
				)
			)
		)
	)
	(symbol
		(lib_id "Mechanical:MountingHole_Pad")
		(at 127 92.075 0)
		(unit 1)
		(exclude_from_sim no)
		(in_bom yes)
		(on_board yes)
		(dnp no)
		(uuid "a0786ef2-a45e-4ca8-b800-31a00d51bc9e")
		(property "Reference" "H3"
			(at 127 84.7852 0)
			(effects
				(font
					(size 1.27 1.27)
				)
			)
		)
		(property "Value" "ANT"
			(at 127 87.0966 0)
			(effects
				(font
					(size 1.27 1.27)
				)
			)
		)
		(property "Footprint" "MountingHole:MountingHole_2.2mm_M2_ISO14580_Pad"
			(at 127 92.075 0)
			(effects
				(font
					(size 1.27 1.27)
				)
				(hide yes)
			)
		)
		(property "Datasheet" "~"
			(at 127 92.075 0)
			(effects
				(font
					(size 1.27 1.27)
				)
				(hide yes)
			)
		)
		(property "Description" ""
			(at 127 92.075 0)
			(effects
				(font
					(size 1.27 1.27)
				)
				(hide yes)
			)
		)
		(pin "1"
			(uuid "964feff9-6e16-4257-8527-712db7a5f21c")
		)
		(instances
			(project "antenna-pcb"
				(path "/a40d2263-de41-41c2-b443-e2e54239a91c"
					(reference "H3")
					(unit 1)
				)
			)
		)
	)
	(symbol
		(lib_id "Mechanical:MountingHole_Pad")
		(at 177.165 94.615 270)
		(unit 1)
		(exclude_from_sim no)
		(in_bom yes)
		(on_board yes)
		(dnp no)
		(uuid "b50ea222-7d26-4011-815e-f04b5181e5cb")
		(property "Reference" "H5"
			(at 184.4548 94.615 0)
			(effects
				(font
					(size 1.27 1.27)
				)
			)
		)
		(property "Value" "GND"
			(at 182.245 95.25 0)
			(effects
				(font
					(size 1.27 1.27)
				)
			)
		)
		(property "Footprint" "LSF_KICAD_LIB:MountingHole_1.5mm_Pad_TopBottom"
			(at 177.165 94.615 0)
			(effects
				(font
					(size 1.27 1.27)
				)
				(hide yes)
			)
		)
		(property "Datasheet" "~"
			(at 177.165 94.615 0)
			(effects
				(font
					(size 1.27 1.27)
				)
				(hide yes)
			)
		)
		(property "Description" ""
			(at 177.165 94.615 0)
			(effects
				(font
					(size 1.27 1.27)
				)
				(hide yes)
			)
		)
		(pin "1"
			(uuid "aa905821-408c-455f-b4a8-54a478c7c83b")
		)
		(instances
			(project "antenna-pcb"
				(path "/a40d2263-de41-41c2-b443-e2e54239a91c"
					(reference "H5")
					(unit 1)
				)
			)
		)
	)
	(symbol
		(lib_id "Mechanical:MountingHole_Pad")
		(at 127 107.315 180)
		(unit 1)
		(exclude_from_sim no)
		(in_bom yes)
		(on_board yes)
		(dnp no)
		(uuid "e5e5582f-0816-4c34-9d31-0a3596b4483b")
		(property "Reference" "H4"
			(at 128.1684 111.125 90)
			(effects
				(font
					(size 1.27 1.27)
				)
				(justify left)
			)
		)
		(property "Value" "ANT"
			(at 125.857 111.125 90)
			(effects
				(font
					(size 1.27 1.27)
				)
				(justify left)
			)
		)
		(property "Footprint" "MountingHole:MountingHole_2.2mm_M2_ISO14580_Pad"
			(at 127 107.315 0)
			(effects
				(font
					(size 1.27 1.27)
				)
				(hide yes)
			)
		)
		(property "Datasheet" "~"
			(at 127 107.315 0)
			(effects
				(font
					(size 1.27 1.27)
				)
				(hide yes)
			)
		)
		(property "Description" ""
			(at 127 107.315 0)
			(effects
				(font
					(size 1.27 1.27)
				)
				(hide yes)
			)
		)
		(pin "1"
			(uuid "a68e03d0-cb69-44dc-a8f1-c2e08cc70787")
		)
		(instances
			(project "antenna-pcb"
				(path "/a40d2263-de41-41c2-b443-e2e54239a91c"
					(reference "H4")
					(unit 1)
				)
			)
		)
	)
	(sheet_instances
		(path "/"
			(page "1")
		)
	)
)